﻿// EVENT 0637
Name "イベント：リリィ"

ChangeSwitch(73,73,0)
If(1,129,0,0,0)
 ShowMessageFace("lily_fc1",3,0,2,1)
 ShowMessage("【リリィ】")
 ShowMessage("強力な魔導科学スキル、ダークマターを伝授してあげるわ……")
 ShowMessage("ただし、「魔導科学」が使える者でないと意味はないわよ。")
 ShowChoices(strings("伝授してもらう","必要ない"),0)
 IfPlayerPicksChoice(0,"伝授してもらう")
  ShowMessageFace("",0,0,2,2)
  ShowMessage("誰が「ダークマター」を修得しますか？")
  DefineLabel("選択")
  355("names = party_members.collect{|m|m.name}")
  655("unlimited_choices(11, names)")
  655("actor = party_members[$game_variables[11]]")
  655("$game_variables[10] = actor ? actor.id : 0")
  If(1,10,0,0,0)
   ChangeSwitch(73,73,1)
   EndEventProcessing()
   0()
  EndIf()
  If(12,"actor_skill_have?(v(10),2145)")
   ShowMessageFace("",0,0,2,3)
   ShowMessage("そのキャラは、すでに「ダークマター」を習得済みだ……")
   JumpToLabel("選択")
   0()
  EndIf()
  ChangeVariable(129,129,0,0,1)
  318(1,10,0,2145)
  250(bytes(0x04,0x08,0x6f,0x3a,0x0c,0x52,0x50,0x47,0x3a,0x3a,0x53,0x45,0x08,0x3a,0x0a,0x40,0x6e,0x61,0x6d,0x65,0x49,0x22,0x0a,0x49,0x74,0x65,0x6d,0x31,0x06,0x3a,0x06,0x45,0x54,0x3a,0x0b,0x40,0x70,0x69,0x74,0x63,0x68,0x69,0x69,0x3a,0x0c,0x40,0x76,0x6f,0x6c,0x75,0x6d,0x65,0x69,0x55))
  ShowMessageFace("",0,0,2,4)
  ShowMessage("\\I[223]\\C[1]ダークマター\\C[0]を修得した！")
  ChangeSwitch(73,73,1)
  EndEventProcessing()
  0()
 IfPlayerPicksChoice(1,"必要ない")
  ChangeSwitch(73,73,1)
  EndEventProcessing()
  0()
 404()
 0()
EndIf()
If(1,129,0,1,0)
 ShowMessageFace("lily_fc1",3,0,2,5)
 ShowMessage("【リリィ】")
 ShowMessage("今日は1人だけよ……")
 ShowMessage("また会いましょう。")
 ChangeSwitch(73,73,1)
 EndEventProcessing()
 0()
EndIf()
0()
