﻿// EVENT 0920
Name "ショートダンジョンクリア"

If(1,123,0,1,0)
 If(1,151,0,1,0)
  249(bytes(0x04,0x08,0x6f,0x3a,0x0c,0x52,0x50,0x47,0x3a,0x3a,0x4d,0x45,0x08,0x3a,0x0a,0x40,0x6e,0x61,0x6d,0x65,0x49,0x22,0x0c,0x66,0x61,0x6e,0x66,0x61,0x6c,0x65,0x06,0x3a,0x06,0x45,0x54,0x3a,0x0b,0x40,0x70,0x69,0x74,0x63,0x68,0x69,0x69,0x3a,0x0c,0x40,0x76,0x6f,0x6c,0x75,0x6d,0x65,0x69,0x69))
  ShowMessageFace("",0,0,2,1)
  ShowMessage("「永劫の森 レベル1」をクリアした！")
  RunCommonEvent(933)
  If(1,132,0,1,2)
   ChangeVariable(132,132,0,0,1)
   ShowMessageFace("",0,0,2,2)
   ShowMessage("「永劫の森 レベル2」に挑めるようになった！")
   0()
  EndIf()
  JumpToLabel("脱出")
  EndEventProcessing()
  0()
 EndIf()
 If(1,151,0,2,0)
  249(bytes(0x04,0x08,0x6f,0x3a,0x0c,0x52,0x50,0x47,0x3a,0x3a,0x4d,0x45,0x08,0x3a,0x0a,0x40,0x6e,0x61,0x6d,0x65,0x49,0x22,0x0c,0x66,0x61,0x6e,0x66,0x61,0x6c,0x65,0x06,0x3a,0x06,0x45,0x54,0x3a,0x0b,0x40,0x70,0x69,0x74,0x63,0x68,0x69,0x69,0x3a,0x0c,0x40,0x76,0x6f,0x6c,0x75,0x6d,0x65,0x69,0x69))
  ShowMessageFace("",0,0,2,3)
  ShowMessage("「永劫の森 レベル2」をクリアした！")
  RunCommonEvent(934)
  If(1,132,0,2,2)
   ChangeVariable(132,132,0,0,2)
   ShowMessageFace("",0,0,2,4)
   ShowMessage("「永劫の森 レベル3」に挑めるようになった！")
   0()
  EndIf()
  JumpToLabel("脱出")
  EndEventProcessing()
  0()
 EndIf()
 If(1,151,0,3,0)
  249(bytes(0x04,0x08,0x6f,0x3a,0x0c,0x52,0x50,0x47,0x3a,0x3a,0x4d,0x45,0x08,0x3a,0x0a,0x40,0x6e,0x61,0x6d,0x65,0x49,0x22,0x0c,0x66,0x61,0x6e,0x66,0x61,0x6c,0x65,0x06,0x3a,0x06,0x45,0x54,0x3a,0x0b,0x40,0x70,0x69,0x74,0x63,0x68,0x69,0x69,0x3a,0x0c,0x40,0x76,0x6f,0x6c,0x75,0x6d,0x65,0x69,0x69))
  ShowMessageFace("",0,0,2,5)
  ShowMessage("「永劫の森 レベル3」をクリアした！")
  RunCommonEvent(935)
  If(1,132,0,3,2)
   ChangeVariable(132,132,0,0,3)
   ShowMessageFace("",0,0,2,6)
   ShowMessage("「永劫の森 レベル4」に挑めるようになった！")
   0()
  EndIf()
  JumpToLabel("脱出")
  EndEventProcessing()
  0()
 EndIf()
 If(1,151,0,4,0)
  249(bytes(0x04,0x08,0x6f,0x3a,0x0c,0x52,0x50,0x47,0x3a,0x3a,0x4d,0x45,0x08,0x3a,0x0a,0x40,0x6e,0x61,0x6d,0x65,0x49,0x22,0x0c,0x66,0x61,0x6e,0x66,0x61,0x6c,0x65,0x06,0x3a,0x06,0x45,0x54,0x3a,0x0b,0x40,0x70,0x69,0x74,0x63,0x68,0x69,0x69,0x3a,0x0c,0x40,0x76,0x6f,0x6c,0x75,0x6d,0x65,0x69,0x69))
  ShowMessageFace("",0,0,2,7)
  ShowMessage("「永劫の森 レベル4」をクリアした！")
  RunCommonEvent(936)
  If(1,132,0,4,2)
   ChangeVariable(132,132,0,0,4)
   ShowMessageFace("",0,0,2,8)
   ShowMessage("「永劫の森 レベル5」に挑めるようになった！")
   0()
  EndIf()
  JumpToLabel("脱出")
  EndEventProcessing()
  0()
 EndIf()
 If(1,151,0,5,0)
  249(bytes(0x04,0x08,0x6f,0x3a,0x0c,0x52,0x50,0x47,0x3a,0x3a,0x4d,0x45,0x08,0x3a,0x0a,0x40,0x6e,0x61,0x6d,0x65,0x49,0x22,0x0c,0x66,0x61,0x6e,0x66,0x61,0x6c,0x65,0x06,0x3a,0x06,0x45,0x54,0x3a,0x0b,0x40,0x70,0x69,0x74,0x63,0x68,0x69,0x69,0x3a,0x0c,0x40,0x76,0x6f,0x6c,0x75,0x6d,0x65,0x69,0x69))
  ShowMessageFace("",0,0,2,9)
  ShowMessage("「永劫の森 レベル5」をクリアした！")
  RunCommonEvent(937)
  If(1,132,0,5,2)
   ChangeVariable(132,132,0,0,5)
   0()
  EndIf()
  JumpToLabel("脱出")
  EndEventProcessing()
  0()
 EndIf()
 0()
EndIf()
If(1,123,0,2,0)
 If(1,151,0,1,0)
  249(bytes(0x04,0x08,0x6f,0x3a,0x0c,0x52,0x50,0x47,0x3a,0x3a,0x4d,0x45,0x08,0x3a,0x0a,0x40,0x6e,0x61,0x6d,0x65,0x49,0x22,0x0c,0x66,0x61,0x6e,0x66,0x61,0x6c,0x65,0x06,0x3a,0x06,0x45,0x54,0x3a,0x0b,0x40,0x70,0x69,0x74,0x63,0x68,0x69,0x69,0x3a,0x0c,0x40,0x76,0x6f,0x6c,0x75,0x6d,0x65,0x69,0x69))
  ShowMessageFace("",0,0,2,10)
  ShowMessage("「修羅の丘 レベル1」をクリアした！")
  RunCommonEvent(933)
  If(1,133,0,1,2)
   ChangeVariable(133,133,0,0,1)
   ShowMessageFace("",0,0,2,11)
   ShowMessage("「修羅の丘 レベル2」に挑めるようになった！")
   0()
  EndIf()
  JumpToLabel("脱出")
  EndEventProcessing()
  0()
 EndIf()
 If(1,151,0,2,0)
  249(bytes(0x04,0x08,0x6f,0x3a,0x0c,0x52,0x50,0x47,0x3a,0x3a,0x4d,0x45,0x08,0x3a,0x0a,0x40,0x6e,0x61,0x6d,0x65,0x49,0x22,0x0c,0x66,0x61,0x6e,0x66,0x61,0x6c,0x65,0x06,0x3a,0x06,0x45,0x54,0x3a,0x0b,0x40,0x70,0x69,0x74,0x63,0x68,0x69,0x69,0x3a,0x0c,0x40,0x76,0x6f,0x6c,0x75,0x6d,0x65,0x69,0x69))
  ShowMessageFace("",0,0,2,12)
  ShowMessage("「修羅の丘 レベル2」をクリアした！")
  RunCommonEvent(934)
  If(1,133,0,2,2)
   ChangeVariable(133,133,0,0,2)
   ShowMessageFace("",0,0,2,13)
   ShowMessage("「修羅の丘 レベル3」に挑めるようになった！")
   0()
  EndIf()
  JumpToLabel("脱出")
  EndEventProcessing()
  0()
 EndIf()
 If(1,151,0,3,0)
  249(bytes(0x04,0x08,0x6f,0x3a,0x0c,0x52,0x50,0x47,0x3a,0x3a,0x4d,0x45,0x08,0x3a,0x0a,0x40,0x6e,0x61,0x6d,0x65,0x49,0x22,0x0c,0x66,0x61,0x6e,0x66,0x61,0x6c,0x65,0x06,0x3a,0x06,0x45,0x54,0x3a,0x0b,0x40,0x70,0x69,0x74,0x63,0x68,0x69,0x69,0x3a,0x0c,0x40,0x76,0x6f,0x6c,0x75,0x6d,0x65,0x69,0x69))
  ShowMessageFace("",0,0,2,14)
  ShowMessage("「修羅の丘 レベル3」をクリアした！")
  RunCommonEvent(935)
  If(1,133,0,3,2)
   ChangeVariable(133,133,0,0,3)
   ShowMessageFace("",0,0,2,15)
   ShowMessage("「修羅の丘 レベル4」に挑めるようになった！")
   0()
  EndIf()
  JumpToLabel("脱出")
  EndEventProcessing()
  0()
 EndIf()
 If(1,151,0,4,0)
  249(bytes(0x04,0x08,0x6f,0x3a,0x0c,0x52,0x50,0x47,0x3a,0x3a,0x4d,0x45,0x08,0x3a,0x0a,0x40,0x6e,0x61,0x6d,0x65,0x49,0x22,0x0c,0x66,0x61,0x6e,0x66,0x61,0x6c,0x65,0x06,0x3a,0x06,0x45,0x54,0x3a,0x0b,0x40,0x70,0x69,0x74,0x63,0x68,0x69,0x69,0x3a,0x0c,0x40,0x76,0x6f,0x6c,0x75,0x6d,0x65,0x69,0x69))
  ShowMessageFace("",0,0,2,16)
  ShowMessage("「修羅の丘 レベル4」をクリアした！")
  RunCommonEvent(936)
  If(1,133,0,4,2)
   ChangeVariable(133,133,0,0,4)
   ShowMessageFace("",0,0,2,17)
   ShowMessage("「修羅の丘 レベル5」に挑めるようになった！")
   0()
  EndIf()
  JumpToLabel("脱出")
  EndEventProcessing()
  0()
 EndIf()
 If(1,151,0,5,0)
  249(bytes(0x04,0x08,0x6f,0x3a,0x0c,0x52,0x50,0x47,0x3a,0x3a,0x4d,0x45,0x08,0x3a,0x0a,0x40,0x6e,0x61,0x6d,0x65,0x49,0x22,0x0c,0x66,0x61,0x6e,0x66,0x61,0x6c,0x65,0x06,0x3a,0x06,0x45,0x54,0x3a,0x0b,0x40,0x70,0x69,0x74,0x63,0x68,0x69,0x69,0x3a,0x0c,0x40,0x76,0x6f,0x6c,0x75,0x6d,0x65,0x69,0x69))
  ShowMessageFace("",0,0,2,18)
  ShowMessage("「修羅の丘 レベル5」をクリアした！")
  RunCommonEvent(937)
  If(1,133,0,5,2)
   ChangeVariable(133,133,0,0,5)
   0()
  EndIf()
  JumpToLabel("脱出")
  EndEventProcessing()
  0()
 EndIf()
 0()
EndIf()
If(1,123,0,3,0)
 If(1,151,0,1,0)
  249(bytes(0x04,0x08,0x6f,0x3a,0x0c,0x52,0x50,0x47,0x3a,0x3a,0x4d,0x45,0x08,0x3a,0x0a,0x40,0x6e,0x61,0x6d,0x65,0x49,0x22,0x0c,0x66,0x61,0x6e,0x66,0x61,0x6c,0x65,0x06,0x3a,0x06,0x45,0x54,0x3a,0x0b,0x40,0x70,0x69,0x74,0x63,0x68,0x69,0x69,0x3a,0x0c,0x40,0x76,0x6f,0x6c,0x75,0x6d,0x65,0x69,0x69))
  ShowMessageFace("",0,0,2,19)
  ShowMessage("「真理の海 レベル1」をクリアした！")
  RunCommonEvent(933)
  If(1,134,0,1,2)
   ChangeVariable(134,134,0,0,1)
   ShowMessageFace("",0,0,2,20)
   ShowMessage("「真理の海 レベル2」に挑めるようになった！")
   0()
  EndIf()
  JumpToLabel("脱出")
  EndEventProcessing()
  0()
 EndIf()
 If(1,151,0,2,0)
  249(bytes(0x04,0x08,0x6f,0x3a,0x0c,0x52,0x50,0x47,0x3a,0x3a,0x4d,0x45,0x08,0x3a,0x0a,0x40,0x6e,0x61,0x6d,0x65,0x49,0x22,0x0c,0x66,0x61,0x6e,0x66,0x61,0x6c,0x65,0x06,0x3a,0x06,0x45,0x54,0x3a,0x0b,0x40,0x70,0x69,0x74,0x63,0x68,0x69,0x69,0x3a,0x0c,0x40,0x76,0x6f,0x6c,0x75,0x6d,0x65,0x69,0x69))
  ShowMessageFace("",0,0,2,21)
  ShowMessage("「真理の海 レベル2」をクリアした！")
  RunCommonEvent(934)
  If(1,134,0,2,2)
   ChangeVariable(134,134,0,0,2)
   ShowMessageFace("",0,0,2,22)
   ShowMessage("「真理の海 レベル3」に挑めるようになった！")
   0()
  EndIf()
  JumpToLabel("脱出")
  EndEventProcessing()
  0()
 EndIf()
 If(1,151,0,3,0)
  249(bytes(0x04,0x08,0x6f,0x3a,0x0c,0x52,0x50,0x47,0x3a,0x3a,0x4d,0x45,0x08,0x3a,0x0a,0x40,0x6e,0x61,0x6d,0x65,0x49,0x22,0x0c,0x66,0x61,0x6e,0x66,0x61,0x6c,0x65,0x06,0x3a,0x06,0x45,0x54,0x3a,0x0b,0x40,0x70,0x69,0x74,0x63,0x68,0x69,0x69,0x3a,0x0c,0x40,0x76,0x6f,0x6c,0x75,0x6d,0x65,0x69,0x69))
  ShowMessageFace("",0,0,2,23)
  ShowMessage("「真理の海 レベル3」をクリアした！")
  RunCommonEvent(935)
  If(1,134,0,3,2)
   ChangeVariable(134,134,0,0,3)
   ShowMessageFace("",0,0,2,24)
   ShowMessage("「真理の海 レベル4」に挑めるようになった！")
   0()
  EndIf()
  JumpToLabel("脱出")
  EndEventProcessing()
  0()
 EndIf()
 If(1,151,0,4,0)
  249(bytes(0x04,0x08,0x6f,0x3a,0x0c,0x52,0x50,0x47,0x3a,0x3a,0x4d,0x45,0x08,0x3a,0x0a,0x40,0x6e,0x61,0x6d,0x65,0x49,0x22,0x0c,0x66,0x61,0x6e,0x66,0x61,0x6c,0x65,0x06,0x3a,0x06,0x45,0x54,0x3a,0x0b,0x40,0x70,0x69,0x74,0x63,0x68,0x69,0x69,0x3a,0x0c,0x40,0x76,0x6f,0x6c,0x75,0x6d,0x65,0x69,0x69))
  ShowMessageFace("",0,0,2,25)
  ShowMessage("「真理の海 レベル4」をクリアした！")
  RunCommonEvent(936)
  If(1,134,0,4,2)
   ChangeVariable(134,134,0,0,4)
   ShowMessageFace("",0,0,2,26)
   ShowMessage("「真理の海 レベル5」に挑めるようになった！")
   0()
  EndIf()
  JumpToLabel("脱出")
  EndEventProcessing()
  0()
 EndIf()
 If(1,151,0,5,0)
  249(bytes(0x04,0x08,0x6f,0x3a,0x0c,0x52,0x50,0x47,0x3a,0x3a,0x4d,0x45,0x08,0x3a,0x0a,0x40,0x6e,0x61,0x6d,0x65,0x49,0x22,0x0c,0x66,0x61,0x6e,0x66,0x61,0x6c,0x65,0x06,0x3a,0x06,0x45,0x54,0x3a,0x0b,0x40,0x70,0x69,0x74,0x63,0x68,0x69,0x69,0x3a,0x0c,0x40,0x76,0x6f,0x6c,0x75,0x6d,0x65,0x69,0x69))
  ShowMessageFace("",0,0,2,27)
  ShowMessage("「真理の海 レベル5」をクリアした！")
  RunCommonEvent(937)
  If(1,134,0,5,2)
   ChangeVariable(134,134,0,0,5)
   0()
  EndIf()
  JumpToLabel("脱出")
  EndEventProcessing()
  0()
 EndIf()
 0()
EndIf()
If(1,123,0,4,0)
 If(1,151,0,1,0)
  249(bytes(0x04,0x08,0x6f,0x3a,0x0c,0x52,0x50,0x47,0x3a,0x3a,0x4d,0x45,0x08,0x3a,0x0a,0x40,0x6e,0x61,0x6d,0x65,0x49,0x22,0x0c,0x66,0x61,0x6e,0x66,0x61,0x6c,0x65,0x06,0x3a,0x06,0x45,0x54,0x3a,0x0b,0x40,0x70,0x69,0x74,0x63,0x68,0x69,0x69,0x3a,0x0c,0x40,0x76,0x6f,0x6c,0x75,0x6d,0x65,0x69,0x69))
  ShowMessageFace("",0,0,2,28)
  ShowMessage("「忘却の砂漠 レベル1」をクリアした！")
  RunCommonEvent(933)
  If(1,135,0,1,2)
   ChangeVariable(135,135,0,0,1)
   ShowMessageFace("",0,0,2,29)
   ShowMessage("「忘却の砂漠 レベル2」に挑めるようになった！")
   0()
  EndIf()
  JumpToLabel("脱出")
  EndEventProcessing()
  0()
 EndIf()
 If(1,151,0,2,0)
  249(bytes(0x04,0x08,0x6f,0x3a,0x0c,0x52,0x50,0x47,0x3a,0x3a,0x4d,0x45,0x08,0x3a,0x0a,0x40,0x6e,0x61,0x6d,0x65,0x49,0x22,0x0c,0x66,0x61,0x6e,0x66,0x61,0x6c,0x65,0x06,0x3a,0x06,0x45,0x54,0x3a,0x0b,0x40,0x70,0x69,0x74,0x63,0x68,0x69,0x69,0x3a,0x0c,0x40,0x76,0x6f,0x6c,0x75,0x6d,0x65,0x69,0x69))
  ShowMessageFace("",0,0,2,30)
  ShowMessage("「忘却の砂漠 レベル2」をクリアした！")
  RunCommonEvent(934)
  If(1,135,0,2,2)
   ChangeVariable(135,135,0,0,2)
   ShowMessageFace("",0,0,2,31)
   ShowMessage("「忘却の砂漠 レベル3」に挑めるようになった！")
   0()
  EndIf()
  JumpToLabel("脱出")
  EndEventProcessing()
  0()
 EndIf()
 If(1,151,0,3,0)
  249(bytes(0x04,0x08,0x6f,0x3a,0x0c,0x52,0x50,0x47,0x3a,0x3a,0x4d,0x45,0x08,0x3a,0x0a,0x40,0x6e,0x61,0x6d,0x65,0x49,0x22,0x0c,0x66,0x61,0x6e,0x66,0x61,0x6c,0x65,0x06,0x3a,0x06,0x45,0x54,0x3a,0x0b,0x40,0x70,0x69,0x74,0x63,0x68,0x69,0x69,0x3a,0x0c,0x40,0x76,0x6f,0x6c,0x75,0x6d,0x65,0x69,0x69))
  ShowMessageFace("",0,0,2,32)
  ShowMessage("「忘却の砂漠 レベル3」をクリアした！")
  RunCommonEvent(935)
  If(1,135,0,3,2)
   ChangeVariable(135,135,0,0,3)
   ShowMessageFace("",0,0,2,33)
   ShowMessage("「忘却の砂漠 レベル4」に挑めるようになった！")
   0()
  EndIf()
  JumpToLabel("脱出")
  EndEventProcessing()
  0()
 EndIf()
 If(1,151,0,4,0)
  249(bytes(0x04,0x08,0x6f,0x3a,0x0c,0x52,0x50,0x47,0x3a,0x3a,0x4d,0x45,0x08,0x3a,0x0a,0x40,0x6e,0x61,0x6d,0x65,0x49,0x22,0x0c,0x66,0x61,0x6e,0x66,0x61,0x6c,0x65,0x06,0x3a,0x06,0x45,0x54,0x3a,0x0b,0x40,0x70,0x69,0x74,0x63,0x68,0x69,0x69,0x3a,0x0c,0x40,0x76,0x6f,0x6c,0x75,0x6d,0x65,0x69,0x69))
  ShowMessageFace("",0,0,2,34)
  ShowMessage("「忘却の砂漠 レベル4」をクリアした！")
  RunCommonEvent(936)
  If(1,135,0,4,2)
   ChangeVariable(135,135,0,0,4)
   ShowMessageFace("",0,0,2,35)
   ShowMessage("「忘却の砂漠 レベル5」に挑めるようになった！")
   0()
  EndIf()
  JumpToLabel("脱出")
  EndEventProcessing()
  0()
 EndIf()
 If(1,151,0,5,0)
  249(bytes(0x04,0x08,0x6f,0x3a,0x0c,0x52,0x50,0x47,0x3a,0x3a,0x4d,0x45,0x08,0x3a,0x0a,0x40,0x6e,0x61,0x6d,0x65,0x49,0x22,0x0c,0x66,0x61,0x6e,0x66,0x61,0x6c,0x65,0x06,0x3a,0x06,0x45,0x54,0x3a,0x0b,0x40,0x70,0x69,0x74,0x63,0x68,0x69,0x69,0x3a,0x0c,0x40,0x76,0x6f,0x6c,0x75,0x6d,0x65,0x69,0x69))
  ShowMessageFace("",0,0,2,36)
  ShowMessage("「忘却の砂漠 レベル5」をクリアした！")
  RunCommonEvent(937)
  If(1,135,0,5,2)
   ChangeVariable(135,135,0,0,5)
   0()
  EndIf()
  JumpToLabel("脱出")
  EndEventProcessing()
  0()
 EndIf()
 0()
EndIf()
If(1,123,0,5,0)
 If(1,151,0,1,0)
  249(bytes(0x04,0x08,0x6f,0x3a,0x0c,0x52,0x50,0x47,0x3a,0x3a,0x4d,0x45,0x08,0x3a,0x0a,0x40,0x6e,0x61,0x6d,0x65,0x49,0x22,0x0c,0x66,0x61,0x6e,0x66,0x61,0x6c,0x65,0x06,0x3a,0x06,0x45,0x54,0x3a,0x0b,0x40,0x70,0x69,0x74,0x63,0x68,0x69,0x69,0x3a,0x0c,0x40,0x76,0x6f,0x6c,0x75,0x6d,0x65,0x69,0x69))
  ShowMessageFace("",0,0,2,37)
  ShowMessage("「回帰の洞窟 レベル1」をクリアした！")
  RunCommonEvent(933)
  If(1,136,0,1,2)
   ChangeVariable(136,136,0,0,1)
   ShowMessageFace("",0,0,2,38)
   ShowMessage("「回帰の洞窟 レベル2」に挑めるようになった！")
   0()
  EndIf()
  JumpToLabel("脱出")
  EndEventProcessing()
  0()
 EndIf()
 If(1,151,0,2,0)
  249(bytes(0x04,0x08,0x6f,0x3a,0x0c,0x52,0x50,0x47,0x3a,0x3a,0x4d,0x45,0x08,0x3a,0x0a,0x40,0x6e,0x61,0x6d,0x65,0x49,0x22,0x0c,0x66,0x61,0x6e,0x66,0x61,0x6c,0x65,0x06,0x3a,0x06,0x45,0x54,0x3a,0x0b,0x40,0x70,0x69,0x74,0x63,0x68,0x69,0x69,0x3a,0x0c,0x40,0x76,0x6f,0x6c,0x75,0x6d,0x65,0x69,0x69))
  ShowMessageFace("",0,0,2,39)
  ShowMessage("「回帰の洞窟 レベル2」をクリアした！")
  RunCommonEvent(934)
  If(1,136,0,2,2)
   ChangeVariable(136,136,0,0,2)
   ShowMessageFace("",0,0,2,40)
   ShowMessage("「回帰の洞窟 レベル3」に挑めるようになった！")
   0()
  EndIf()
  JumpToLabel("脱出")
  EndEventProcessing()
  0()
 EndIf()
 If(1,151,0,3,0)
  249(bytes(0x04,0x08,0x6f,0x3a,0x0c,0x52,0x50,0x47,0x3a,0x3a,0x4d,0x45,0x08,0x3a,0x0a,0x40,0x6e,0x61,0x6d,0x65,0x49,0x22,0x0c,0x66,0x61,0x6e,0x66,0x61,0x6c,0x65,0x06,0x3a,0x06,0x45,0x54,0x3a,0x0b,0x40,0x70,0x69,0x74,0x63,0x68,0x69,0x69,0x3a,0x0c,0x40,0x76,0x6f,0x6c,0x75,0x6d,0x65,0x69,0x69))
  ShowMessageFace("",0,0,2,41)
  ShowMessage("「回帰の洞窟 レベル3」をクリアした！")
  RunCommonEvent(935)
  If(1,136,0,3,2)
   ChangeVariable(136,136,0,0,3)
   ShowMessageFace("",0,0,2,42)
   ShowMessage("「回帰の洞窟 レベル4」に挑めるようになった！")
   0()
  EndIf()
  JumpToLabel("脱出")
  EndEventProcessing()
  0()
 EndIf()
 If(1,151,0,4,0)
  249(bytes(0x04,0x08,0x6f,0x3a,0x0c,0x52,0x50,0x47,0x3a,0x3a,0x4d,0x45,0x08,0x3a,0x0a,0x40,0x6e,0x61,0x6d,0x65,0x49,0x22,0x0c,0x66,0x61,0x6e,0x66,0x61,0x6c,0x65,0x06,0x3a,0x06,0x45,0x54,0x3a,0x0b,0x40,0x70,0x69,0x74,0x63,0x68,0x69,0x69,0x3a,0x0c,0x40,0x76,0x6f,0x6c,0x75,0x6d,0x65,0x69,0x69))
  ShowMessageFace("",0,0,2,43)
  ShowMessage("「回帰の洞窟 レベル4」をクリアした！")
  RunCommonEvent(936)
  If(1,136,0,4,2)
   ChangeVariable(136,136,0,0,4)
   ShowMessageFace("",0,0,2,44)
   ShowMessage("「回帰の洞窟 レベル5」に挑めるようになった！")
   0()
  EndIf()
  JumpToLabel("脱出")
  EndEventProcessing()
  0()
 EndIf()
 If(1,151,0,5,0)
  249(bytes(0x04,0x08,0x6f,0x3a,0x0c,0x52,0x50,0x47,0x3a,0x3a,0x4d,0x45,0x08,0x3a,0x0a,0x40,0x6e,0x61,0x6d,0x65,0x49,0x22,0x0c,0x66,0x61,0x6e,0x66,0x61,0x6c,0x65,0x06,0x3a,0x06,0x45,0x54,0x3a,0x0b,0x40,0x70,0x69,0x74,0x63,0x68,0x69,0x69,0x3a,0x0c,0x40,0x76,0x6f,0x6c,0x75,0x6d,0x65,0x69,0x69))
  ShowMessageFace("",0,0,2,45)
  ShowMessage("「回帰の洞窟 レベル5」をクリアした！")
  RunCommonEvent(937)
  If(1,136,0,5,2)
   ChangeVariable(136,136,0,0,5)
   0()
  EndIf()
  JumpToLabel("脱出")
  EndEventProcessing()
  0()
 EndIf()
 0()
EndIf()
If(1,123,0,6,0)
 If(1,151,0,1,0)
  249(bytes(0x04,0x08,0x6f,0x3a,0x0c,0x52,0x50,0x47,0x3a,0x3a,0x4d,0x45,0x08,0x3a,0x0a,0x40,0x6e,0x61,0x6d,0x65,0x49,0x22,0x0c,0x66,0x61,0x6e,0x66,0x61,0x6c,0x65,0x06,0x3a,0x06,0x45,0x54,0x3a,0x0b,0x40,0x70,0x69,0x74,0x63,0x68,0x69,0x69,0x3a,0x0c,0x40,0x76,0x6f,0x6c,0x75,0x6d,0x65,0x69,0x69))
  ShowMessageFace("",0,0,2,46)
  ShowMessage("「位相の塔 レベル1」をクリアした！")
  RunCommonEvent(933)
  If(1,137,0,1,2)
   ChangeVariable(137,137,0,0,1)
   ShowMessageFace("",0,0,2,47)
   ShowMessage("「位相の塔 レベル2」に挑めるようになった！")
   0()
  EndIf()
  JumpToLabel("脱出")
  EndEventProcessing()
  0()
 EndIf()
 If(1,151,0,2,0)
  249(bytes(0x04,0x08,0x6f,0x3a,0x0c,0x52,0x50,0x47,0x3a,0x3a,0x4d,0x45,0x08,0x3a,0x0a,0x40,0x6e,0x61,0x6d,0x65,0x49,0x22,0x0c,0x66,0x61,0x6e,0x66,0x61,0x6c,0x65,0x06,0x3a,0x06,0x45,0x54,0x3a,0x0b,0x40,0x70,0x69,0x74,0x63,0x68,0x69,0x69,0x3a,0x0c,0x40,0x76,0x6f,0x6c,0x75,0x6d,0x65,0x69,0x69))
  ShowMessageFace("",0,0,2,48)
  ShowMessage("「位相の塔 レベル2」をクリアした！")
  RunCommonEvent(934)
  If(1,137,0,2,2)
   ChangeVariable(137,137,0,0,2)
   ShowMessageFace("",0,0,2,49)
   ShowMessage("「位相の塔 レベル3」に挑めるようになった！")
   0()
  EndIf()
  JumpToLabel("脱出")
  EndEventProcessing()
  0()
 EndIf()
 If(1,151,0,3,0)
  249(bytes(0x04,0x08,0x6f,0x3a,0x0c,0x52,0x50,0x47,0x3a,0x3a,0x4d,0x45,0x08,0x3a,0x0a,0x40,0x6e,0x61,0x6d,0x65,0x49,0x22,0x0c,0x66,0x61,0x6e,0x66,0x61,0x6c,0x65,0x06,0x3a,0x06,0x45,0x54,0x3a,0x0b,0x40,0x70,0x69,0x74,0x63,0x68,0x69,0x69,0x3a,0x0c,0x40,0x76,0x6f,0x6c,0x75,0x6d,0x65,0x69,0x69))
  ShowMessageFace("",0,0,2,50)
  ShowMessage("「位相の塔 レベル3」をクリアした！")
  RunCommonEvent(935)
  If(1,137,0,3,2)
   ChangeVariable(137,137,0,0,3)
   ShowMessageFace("",0,0,2,51)
   ShowMessage("「位相の塔 レベル4」に挑めるようになった！")
   0()
  EndIf()
  JumpToLabel("脱出")
  EndEventProcessing()
  0()
 EndIf()
 If(1,151,0,4,0)
  249(bytes(0x04,0x08,0x6f,0x3a,0x0c,0x52,0x50,0x47,0x3a,0x3a,0x4d,0x45,0x08,0x3a,0x0a,0x40,0x6e,0x61,0x6d,0x65,0x49,0x22,0x0c,0x66,0x61,0x6e,0x66,0x61,0x6c,0x65,0x06,0x3a,0x06,0x45,0x54,0x3a,0x0b,0x40,0x70,0x69,0x74,0x63,0x68,0x69,0x69,0x3a,0x0c,0x40,0x76,0x6f,0x6c,0x75,0x6d,0x65,0x69,0x69))
  ShowMessageFace("",0,0,2,52)
  ShowMessage("「位相の塔 レベル4」をクリアした！")
  RunCommonEvent(936)
  If(1,137,0,4,2)
   ChangeVariable(137,137,0,0,4)
   ShowMessageFace("",0,0,2,53)
   ShowMessage("「位相の塔 レベル5」に挑めるようになった！")
   0()
  EndIf()
  JumpToLabel("脱出")
  EndEventProcessing()
  0()
 EndIf()
 If(1,151,0,5,0)
  249(bytes(0x04,0x08,0x6f,0x3a,0x0c,0x52,0x50,0x47,0x3a,0x3a,0x4d,0x45,0x08,0x3a,0x0a,0x40,0x6e,0x61,0x6d,0x65,0x49,0x22,0x0c,0x66,0x61,0x6e,0x66,0x61,0x6c,0x65,0x06,0x3a,0x06,0x45,0x54,0x3a,0x0b,0x40,0x70,0x69,0x74,0x63,0x68,0x69,0x69,0x3a,0x0c,0x40,0x76,0x6f,0x6c,0x75,0x6d,0x65,0x69,0x69))
  ShowMessageFace("",0,0,2,54)
  ShowMessage("「位相の塔 レベル5」をクリアした！")
  RunCommonEvent(937)
  If(1,137,0,5,2)
   ChangeVariable(137,137,0,0,5)
   0()
  EndIf()
  JumpToLabel("脱出")
  EndEventProcessing()
  0()
 EndIf()
 0()
EndIf()
If(1,123,0,7,0)
 If(1,151,0,1,0)
  249(bytes(0x04,0x08,0x6f,0x3a,0x0c,0x52,0x50,0x47,0x3a,0x3a,0x4d,0x45,0x08,0x3a,0x0a,0x40,0x6e,0x61,0x6d,0x65,0x49,0x22,0x0c,0x66,0x61,0x6e,0x66,0x61,0x6c,0x65,0x06,0x3a,0x06,0x45,0x54,0x3a,0x0b,0x40,0x70,0x69,0x74,0x63,0x68,0x69,0x69,0x3a,0x0c,0x40,0x76,0x6f,0x6c,0x75,0x6d,0x65,0x69,0x69))
  ShowMessageFace("",0,0,2,55)
  ShowMessage("「終焉の町 レベル1」をクリアした！")
  RunCommonEvent(933)
  If(1,138,0,1,2)
   ChangeVariable(138,138,0,0,1)
   ShowMessageFace("",0,0,2,56)
   ShowMessage("「終焉の町 レベル2」に挑めるようになった！")
   0()
  EndIf()
  JumpToLabel("脱出")
  EndEventProcessing()
  0()
 EndIf()
 If(1,151,0,2,0)
  249(bytes(0x04,0x08,0x6f,0x3a,0x0c,0x52,0x50,0x47,0x3a,0x3a,0x4d,0x45,0x08,0x3a,0x0a,0x40,0x6e,0x61,0x6d,0x65,0x49,0x22,0x0c,0x66,0x61,0x6e,0x66,0x61,0x6c,0x65,0x06,0x3a,0x06,0x45,0x54,0x3a,0x0b,0x40,0x70,0x69,0x74,0x63,0x68,0x69,0x69,0x3a,0x0c,0x40,0x76,0x6f,0x6c,0x75,0x6d,0x65,0x69,0x69))
  ShowMessageFace("",0,0,2,57)
  ShowMessage("「終焉の町 レベル2」をクリアした！")
  RunCommonEvent(934)
  If(1,138,0,2,2)
   ChangeVariable(138,138,0,0,2)
   ShowMessageFace("",0,0,2,58)
   ShowMessage("「終焉の町 レベル3」に挑めるようになった！")
   0()
  EndIf()
  JumpToLabel("脱出")
  EndEventProcessing()
  0()
 EndIf()
 If(1,151,0,3,0)
  249(bytes(0x04,0x08,0x6f,0x3a,0x0c,0x52,0x50,0x47,0x3a,0x3a,0x4d,0x45,0x08,0x3a,0x0a,0x40,0x6e,0x61,0x6d,0x65,0x49,0x22,0x0c,0x66,0x61,0x6e,0x66,0x61,0x6c,0x65,0x06,0x3a,0x06,0x45,0x54,0x3a,0x0b,0x40,0x70,0x69,0x74,0x63,0x68,0x69,0x69,0x3a,0x0c,0x40,0x76,0x6f,0x6c,0x75,0x6d,0x65,0x69,0x69))
  ShowMessageFace("",0,0,2,59)
  ShowMessage("「終焉の町 レベル3」をクリアした！")
  RunCommonEvent(935)
  If(1,138,0,3,2)
   ChangeVariable(138,138,0,0,3)
   ShowMessageFace("",0,0,2,60)
   ShowMessage("「終焉の町 レベル4」に挑めるようになった！")
   0()
  EndIf()
  JumpToLabel("脱出")
  EndEventProcessing()
  0()
 EndIf()
 If(1,151,0,4,0)
  249(bytes(0x04,0x08,0x6f,0x3a,0x0c,0x52,0x50,0x47,0x3a,0x3a,0x4d,0x45,0x08,0x3a,0x0a,0x40,0x6e,0x61,0x6d,0x65,0x49,0x22,0x0c,0x66,0x61,0x6e,0x66,0x61,0x6c,0x65,0x06,0x3a,0x06,0x45,0x54,0x3a,0x0b,0x40,0x70,0x69,0x74,0x63,0x68,0x69,0x69,0x3a,0x0c,0x40,0x76,0x6f,0x6c,0x75,0x6d,0x65,0x69,0x69))
  ShowMessageFace("",0,0,2,61)
  ShowMessage("「終焉の町 レベル4」をクリアした！")
  RunCommonEvent(936)
  If(1,138,0,4,2)
   ChangeVariable(138,138,0,0,4)
   ShowMessageFace("",0,0,2,62)
   ShowMessage("「終焉の町 レベル5」に挑めるようになった！")
   0()
  EndIf()
  JumpToLabel("脱出")
  EndEventProcessing()
  0()
 EndIf()
 If(1,151,0,5,0)
  249(bytes(0x04,0x08,0x6f,0x3a,0x0c,0x52,0x50,0x47,0x3a,0x3a,0x4d,0x45,0x08,0x3a,0x0a,0x40,0x6e,0x61,0x6d,0x65,0x49,0x22,0x0c,0x66,0x61,0x6e,0x66,0x61,0x6c,0x65,0x06,0x3a,0x06,0x45,0x54,0x3a,0x0b,0x40,0x70,0x69,0x74,0x63,0x68,0x69,0x69,0x3a,0x0c,0x40,0x76,0x6f,0x6c,0x75,0x6d,0x65,0x69,0x69))
  ShowMessageFace("",0,0,2,63)
  ShowMessage("「終焉の町 レベル5」をクリアした！")
  RunCommonEvent(937)
  If(1,138,0,5,2)
   ChangeVariable(138,138,0,0,5)
   0()
  EndIf()
  JumpToLabel("脱出")
  EndEventProcessing()
  0()
 EndIf()
 0()
EndIf()
If(1,123,0,8,0)
 If(1,151,0,1,0)
  249(bytes(0x04,0x08,0x6f,0x3a,0x0c,0x52,0x50,0x47,0x3a,0x3a,0x4d,0x45,0x08,0x3a,0x0a,0x40,0x6e,0x61,0x6d,0x65,0x49,0x22,0x0c,0x66,0x61,0x6e,0x66,0x61,0x6c,0x65,0x06,0x3a,0x06,0x45,0x54,0x3a,0x0b,0x40,0x70,0x69,0x74,0x63,0x68,0x69,0x69,0x3a,0x0c,0x40,0x76,0x6f,0x6c,0x75,0x6d,0x65,0x69,0x69))
  ShowMessageFace("",0,0,2,64)
  ShowMessage("「無限の混沌 レベル1」をクリアした！")
  RunCommonEvent(933)
  If(1,139,0,1,2)
   ChangeVariable(139,139,0,0,1)
   ShowMessageFace("",0,0,2,65)
   ShowMessage("「無限の混沌 レベル2」に挑めるようになった！")
   0()
  EndIf()
  JumpToLabel("脱出")
  EndEventProcessing()
  0()
 EndIf()
 If(1,151,0,2,0)
  249(bytes(0x04,0x08,0x6f,0x3a,0x0c,0x52,0x50,0x47,0x3a,0x3a,0x4d,0x45,0x08,0x3a,0x0a,0x40,0x6e,0x61,0x6d,0x65,0x49,0x22,0x0c,0x66,0x61,0x6e,0x66,0x61,0x6c,0x65,0x06,0x3a,0x06,0x45,0x54,0x3a,0x0b,0x40,0x70,0x69,0x74,0x63,0x68,0x69,0x69,0x3a,0x0c,0x40,0x76,0x6f,0x6c,0x75,0x6d,0x65,0x69,0x69))
  ShowMessageFace("",0,0,2,66)
  ShowMessage("「無限の混沌 レベル2」をクリアした！")
  RunCommonEvent(934)
  If(1,139,0,2,2)
   ChangeVariable(139,139,0,0,2)
   ShowMessageFace("",0,0,2,67)
   ShowMessage("「無限の混沌 レベル3」に挑めるようになった！")
   0()
  EndIf()
  JumpToLabel("脱出")
  EndEventProcessing()
  0()
 EndIf()
 If(1,151,0,3,0)
  249(bytes(0x04,0x08,0x6f,0x3a,0x0c,0x52,0x50,0x47,0x3a,0x3a,0x4d,0x45,0x08,0x3a,0x0a,0x40,0x6e,0x61,0x6d,0x65,0x49,0x22,0x0c,0x66,0x61,0x6e,0x66,0x61,0x6c,0x65,0x06,0x3a,0x06,0x45,0x54,0x3a,0x0b,0x40,0x70,0x69,0x74,0x63,0x68,0x69,0x69,0x3a,0x0c,0x40,0x76,0x6f,0x6c,0x75,0x6d,0x65,0x69,0x69))
  ShowMessageFace("",0,0,2,68)
  ShowMessage("「無限の混沌 レベル3」をクリアした！")
  RunCommonEvent(935)
  If(1,139,0,3,2)
   ChangeVariable(139,139,0,0,3)
   ShowMessageFace("",0,0,2,69)
   ShowMessage("「無限の混沌 レベル4」に挑めるようになった！")
   0()
  EndIf()
  JumpToLabel("脱出")
  EndEventProcessing()
  0()
 EndIf()
 If(1,151,0,4,0)
  249(bytes(0x04,0x08,0x6f,0x3a,0x0c,0x52,0x50,0x47,0x3a,0x3a,0x4d,0x45,0x08,0x3a,0x0a,0x40,0x6e,0x61,0x6d,0x65,0x49,0x22,0x0c,0x66,0x61,0x6e,0x66,0x61,0x6c,0x65,0x06,0x3a,0x06,0x45,0x54,0x3a,0x0b,0x40,0x70,0x69,0x74,0x63,0x68,0x69,0x69,0x3a,0x0c,0x40,0x76,0x6f,0x6c,0x75,0x6d,0x65,0x69,0x69))
  ShowMessageFace("",0,0,2,70)
  ShowMessage("「無限の混沌 レベル4」をクリアした！")
  RunCommonEvent(936)
  If(1,139,0,4,2)
   ChangeVariable(139,139,0,0,4)
   ShowMessageFace("",0,0,2,71)
   ShowMessage("「無限の混沌 レベル5」に挑めるようになった！")
   0()
  EndIf()
  JumpToLabel("脱出")
  EndEventProcessing()
  0()
 EndIf()
 If(1,151,0,5,0)
  249(bytes(0x04,0x08,0x6f,0x3a,0x0c,0x52,0x50,0x47,0x3a,0x3a,0x4d,0x45,0x08,0x3a,0x0a,0x40,0x6e,0x61,0x6d,0x65,0x49,0x22,0x0c,0x66,0x61,0x6e,0x66,0x61,0x6c,0x65,0x06,0x3a,0x06,0x45,0x54,0x3a,0x0b,0x40,0x70,0x69,0x74,0x63,0x68,0x69,0x69,0x3a,0x0c,0x40,0x76,0x6f,0x6c,0x75,0x6d,0x65,0x69,0x69))
  ShowMessageFace("",0,0,2,72)
  ShowMessage("「無限の混沌 レベル5」をクリアした！")
  RunCommonEvent(937)
  If(1,139,0,5,2)
   ChangeVariable(139,139,0,0,5)
   0()
  EndIf()
  JumpToLabel("脱出")
  EndEventProcessing()
  0()
 EndIf()
 0()
EndIf()
If(1,123,0,9,0)
 DefineLabel("メイン")
 ShowChoices(strings("セーブする","次の階層に進む"),2)
 IfPlayerPicksChoice(0,null)
  352()
  JumpToLabel("メイン")
  0()
 IfPlayerPicksChoice(1,null)
  RunCommonEvent(901)
  EndEventProcessing()
  0()
 404()
 0()
EndIf()
DefineLabel("脱出")
221()
242(1)
Wait(60)
RunCommonEvent(902)
250(bytes(0x04,0x08,0x6f,0x3a,0x0c,0x52,0x50,0x47,0x3a,0x3a,0x53,0x45,0x08,0x3a,0x0a,0x40,0x6e,0x61,0x6d,0x65,0x49,0x22,0x09,0x4d,0x6f,0x76,0x65,0x06,0x3a,0x06,0x45,0x54,0x3a,0x0b,0x40,0x70,0x69,0x74,0x63,0x68,0x69,0x69,0x3a,0x0c,0x40,0x76,0x6f,0x6c,0x75,0x6d,0x65,0x69,0x55))
Wait(60)
TeleportPlayer(0,644,18,11,2,2)
222()
EndEventProcessing()
0()
