﻿// EVENT 0644
Name "イベント：フェルナンデス"

ChangeSwitch(73,73,0)
If(1,129,0,0,0)
 ShowMessageFace("cirqueb_fc1",0,0,2,1)
 ShowMessage("【フェルナンデス】")
 ShowMessage("私が、剣技を伝授してあげるわ……")
 ShowMessage("さあ、どれを学びたい？")
 DefineLabel("選択")
 ShowChoices(strings("アークブリンガー（剣技）","サザンクロス（短剣技）","ノーザンクロス（尖剣技）","必要ない"),4)
 IfPlayerPicksChoice(0,null)
  ShowMessageFace("",0,0,2,2)
  ShowMessage("誰が「アークブリンガー」を修得しますか？")
  355("names = party_members.collect{|m|m.name}")
  655("unlimited_choices(11, names)")
  655("actor = party_members[$game_variables[11]]")
  655("$game_variables[10] = actor ? actor.id : 0")
  If(1,10,0,0,0)
   ChangeSwitch(73,73,1)
   EndEventProcessing()
   0()
  EndIf()
  If(12,"actor_skill_have?(v(10),949)")
   ShowMessageFace("",0,0,2,3)
   ShowMessage("そのキャラは、すでに「アークブリンガー」を習得済みだ……")
   JumpToLabel("選択")
   0()
  EndIf()
  ChangeVariable(129,129,0,0,1)
  318(1,10,0,949)
  250(bytes(0x04,0x08,0x6f,0x3a,0x0c,0x52,0x50,0x47,0x3a,0x3a,0x53,0x45,0x08,0x3a,0x0a,0x40,0x6e,0x61,0x6d,0x65,0x49,0x22,0x0a,0x49,0x74,0x65,0x6d,0x31,0x06,0x3a,0x06,0x45,0x54,0x3a,0x0b,0x40,0x70,0x69,0x74,0x63,0x68,0x69,0x69,0x3a,0x0c,0x40,0x76,0x6f,0x6c,0x75,0x6d,0x65,0x69,0x55))
  ShowMessageFace("",0,0,2,4)
  ShowMessage("\\I[463]\\C[1]アークブリンガー\\C[0]を修得した！")
  ChangeSwitch(73,73,1)
  EndEventProcessing()
  0()
 IfPlayerPicksChoice(1,null)
  ShowMessageFace("",0,0,2,5)
  ShowMessage("誰が「サザンクロス」を修得しますか？")
  355("names = party_members.collect{|m|m.name}")
  655("unlimited_choices(11, names)")
  655("actor = party_members[$game_variables[11]]")
  655("$game_variables[10] = actor ? actor.id : 0")
  If(1,10,0,0,0)
   EndEventProcessing()
   0()
  EndIf()
  If(12,"actor_skill_have?(v(10),909)")
   ShowMessageFace("",0,0,2,6)
   ShowMessage("そのキャラは、すでに「サザンクロス」を習得済みだ……")
   JumpToLabel("選択")
   0()
  EndIf()
  ChangeVariable(129,129,0,0,1)
  318(1,10,0,909)
  250(bytes(0x04,0x08,0x6f,0x3a,0x0c,0x52,0x50,0x47,0x3a,0x3a,0x53,0x45,0x08,0x3a,0x0a,0x40,0x6e,0x61,0x6d,0x65,0x49,0x22,0x0a,0x49,0x74,0x65,0x6d,0x31,0x06,0x3a,0x06,0x45,0x54,0x3a,0x0b,0x40,0x70,0x69,0x74,0x63,0x68,0x69,0x69,0x3a,0x0c,0x40,0x76,0x6f,0x6c,0x75,0x6d,0x65,0x69,0x55))
  ShowMessageFace("",0,0,2,7)
  ShowMessage("\\I[463]\\C[1]サザンクロス\\C[0]を修得した！")
  ChangeSwitch(73,73,1)
  EndEventProcessing()
  0()
 IfPlayerPicksChoice(2,null)
  ShowMessageFace("",0,0,2,8)
  ShowMessage("誰が「ノーザンクロス」を修得しますか？")
  355("names = party_members.collect{|m|m.name}")
  655("unlimited_choices(11, names)")
  655("actor = party_members[$game_variables[11]]")
  655("$game_variables[10] = actor ? actor.id : 0")
  If(1,10,0,0,0)
   EndEventProcessing()
   0()
  EndIf()
  If(12,"actor_skill_have?(v(10),999)")
   ShowMessageFace("",0,0,2,9)
   ShowMessage("そのキャラは、すでに「ノーザンクロス」を習得済みだ……")
   JumpToLabel("選択")
   0()
  EndIf()
  ChangeVariable(129,129,0,0,1)
  318(1,10,0,999)
  250(bytes(0x04,0x08,0x6f,0x3a,0x0c,0x52,0x50,0x47,0x3a,0x3a,0x53,0x45,0x08,0x3a,0x0a,0x40,0x6e,0x61,0x6d,0x65,0x49,0x22,0x0a,0x49,0x74,0x65,0x6d,0x31,0x06,0x3a,0x06,0x45,0x54,0x3a,0x0b,0x40,0x70,0x69,0x74,0x63,0x68,0x69,0x69,0x3a,0x0c,0x40,0x76,0x6f,0x6c,0x75,0x6d,0x65,0x69,0x55))
  ShowMessageFace("",0,0,2,10)
  ShowMessage("\\I[463]\\C[1]ノーザンクロス\\C[0]を修得した！")
  ChangeSwitch(73,73,1)
  EndEventProcessing()
  0()
 IfPlayerPicksChoice(3,null)
  ChangeSwitch(73,73,1)
  EndEventProcessing()
  0()
 404()
 0()
EndIf()
If(1,129,0,1,0)
 ShowMessageFace("cirqueb_fc1",0,0,2,11)
 ShowMessage("【フェルナンデス】")
 ShowMessage("今日はこれまでよ……")
 ChangeSwitch(73,73,1)
 EndEventProcessing()
 0()
EndIf()
0()
